…
-  Date:  This variable is a simpler representation of a Date, without an associated time.  These are typically much easier to deal with than POSIXct variables.

-  logi:  This variable takes the values FALSE or TRUE (logical).

Note that we only have numeric and character variables when reading in the fetuses dataset.  As a general rule, the output of read_excel (or read_csv for a CSV file) will give us variables that are either numbers if all of the values can be interpreted as a number, or text if any of the variables can't be interpreted as a number (the main exception to this is that read_excel will automatically read columns formatted as date or time in Excel into POSIXct).  Blank cells don't count when determining variable types, so if you have a column of numbers with some empty cells then the variable will still be a number, just with some missing values corresponding to the empty rows.  Missing values in R are represented by NA - but you should not use the text 'NA' in Excel (unless of course you want to represent sodium or Nebraska).  If you have values that are missing, just leave the cell blank.

Another way of looking at the data is by typing the name of the data frame:


```r
fetuses
```

```
## # A tibble: 262 x 18
##    parity age_days weight_kg crl_cm head_width_mm head_length_mm hair_coronary_b… hair_ear
##     <dbl>    <dbl>     <dbl>  <dbl>         <dbl>          <dbl> <chr>            <chr>   
##  1      3      274    35.5     86.8         128            239   Y                Y       
##  2      2      196    10.2     61.8          83.8          154   Y                Y       
##  3      1      259    27.2     89.3         121            220.  Y                Y       
##  4      1      249    29.1     83           118            215   Y                Y       
##  5      2      221    16.6     75.4         101.           183   Y                Y       
##  6      3      221    19.0     77.7          97            189   Y                Y       
##  7      2      177     6.35    55.4          74.5          142.  Y                N       
##  8      2       82     0.046   10.4          24.3           36.8 N                N       
##  9      6      193    11.2     62.4          85.4          153.  Y                N       
## 10      4      142     1.77    35.4          62.4           99.8 N                N       
## # … with 252 more rows, and 10 more variables: hair_eyelid <chr>, hair_tail <chr>,
## #   hair_hornbud <chr>, tactile_muzzle <chr>, tactile_eyebrow <chr>, tactile_eyelash <chr>,
## #   eye_op_close <chr>, papillae_tongue <chr>, eyelid <chr>, sex <chr>
```
…
### Creating new variables

In order to be able to format our variables correctly, we need to modify the data frame we have created.  Note that we are do NOT want to modify the original Excel file, only the data frame within R.  There are several ways to do this, but here we will stick with the tidyverse approach.

The function mutate() allows us to create a new variable based on one or more existing variables.  For example, the following code creates a new numeric variable called crl_mm based on the existing numeric variable crl_cm:


```r
fetuses %>%
	mutate(crl_mm = crl_cm*10)
```

```
## # A tibble: 262 x 19
##    parity age_days weight_kg crl_cm head_width_mm head_length_mm hair_coronary_b… hair_ear
##     <dbl>    <dbl>     <dbl>  <dbl>         <dbl>          <dbl> <chr>            <chr>   
##  1      3      274    35.5     86.8         128            239   Y                Y       
##  2      2      196    10.2     61.8          83.8          154   Y                Y       
##  3      1      259    27.2     89.3         121            220.  Y                Y       
##  4      1      249    29.1     83           118            215   Y                Y       
##  5      2      221    16.6     75.4         101.           183   Y                Y       
##  6      3      221    19.0     77.7          97            189   Y                Y       
##  7      2      177     6.35    55.4          74.5          142.  Y                N       
##  8      2       82     0.046   10.4          24.3           36.8 N                N       
##  9      6      193    11.2     62.4          85.4          153.  Y                N       
## 10      4      142     1.77    35.4          62.4           99.8 N                N       
## # … with 252 more rows, and 11 more variables: hair_eyelid <chr>, hair_tail <chr>,
## #   hair_hornbud <chr>, tactile_muzzle <chr>, tactile_eyebrow <chr>, tactile_eyelash <chr>,
## #   eye_op_close <chr>, papillae_tongue <chr>, eyelid <chr>, sex <chr>, crl_mm <dbl>
```
…
We have both the factor level NA (the value that was missing to start with) and NA's (the value of 'n' that became missing because it wasn't included in the allowed levels).  But this subtle distinction is not visible in the data itself:


```r
fetuses
```

```
## # A tibble: 243 x 5
##       ID parity age_days hair_coronary_band hair_coronary_band_fct
##    <int>  <dbl>    <dbl> <chr>              <fct>                 
##  1     1      3      274 n                  <NA>                  
##  2     2      2      196 ""                 <NA>                  
##  3     3      1      259 Y                  Y                     
##  4     4      1      249 Y                  Y                     
##  5     5      2      221 Y                  Y                     
##  6     6      3      221 Y                  Y                     
##  7     7      2      177 Y                  Y                     
##  8     8      2       82 N                  N                     
##  9     9      6      193 Y                  Y                     
## 10    10      4      142 N                  N                     
## # … with 233 more rows
```
…
There is now no more mention of 'Ancient' cows in parity_group.  Notice here that rather than using two separate mutate() functions, I mutated two variables within the same function separated by a comma.  The two approaches are the same.

There is a second discrete number that makes sense to convert into a factor:  our ID variable is currently stored as a number, but it makes more sense to think of it as a grouping variable i.e. a factor.  Sometimes this doesn't make any difference, but if we want to use ID either to merge datasets, or as a stratifying variable in a plot or in a model, then we might get the wrong result if ID is a number.  So we had better turn it into a factor:


```r
fetuses <- fetuses %>%
	mutate(ID_simple = parse_factor(str_c('ID_', ID)))  %>%
	mutate(ID = parse_factor(str_c('ID_', str_replace_all(format(ID),' ','0'))))

fetuses
```

```
## # A tibble: 243 x 7
##    ID     parity age_days hair_coronary_band parity_fct parity_group ID_simple
##    <fct>   <dbl>    <dbl> <fct>              <fct>      <fct>        <fct>    
##  1 ID_001      3      274 No                 Parity_3   Older        ID_1     
##  2 ID_002      2      196 <NA>               Parity_2   Second       ID_2     
##  3 ID_003      1      259 Yes                Parity_1   First        ID_3     
##  4 ID_004      1      249 Yes                Parity_1   First        ID_4     
##  5 ID_005      2      221 Yes                Parity_2   Second       ID_5     
##  6 ID_006      3      221 Yes                Parity_3   Older        ID_6     
##  7 ID_007      2      177 Yes                Parity_2   Second       ID_7     
##  8 ID_008      2       82 No                 Parity_2   Second       ID_8     
##  9 ID_009      6      193 Yes                Parity_6   Older        ID_9     
## 10 ID_010      4      142 No                 Parity_4   Older        ID_10    
## # … with 233 more rows
```
…
