…
This gives several bits of information: how many rows (262) and columns (18) are in the data, what each of these columns are called (parity, age_days and so on), how these variables are being stored (we only have num = numeric/number, and chr = character/text in this data frame), and the values stored in the first few rows for each variable. We can get similar information by just typing the name of the data frame:

fetuses

## # A tibble: 262 x 18
##    parity age_days weight_kg crl_cm head_width_mm head_length_mm hair_coronary_b… hair_ear
##     <dbl>    <dbl>     <dbl>  <dbl>         <dbl>          <dbl> <chr>            <chr>   
##  1      3      274    35.5     86.8         128            239   Y                Y       
##  2      2      196    10.2     61.8          83.8          154   Y                Y       
##  3      1      259    27.2     89.3         121            220.  Y                Y       
##  4      1      249    29.1     83           118            215   Y                Y       
##  5      2      221    16.6     75.4         101.           183   Y                Y       
##  6      3      221    19.0     77.7          97            189   Y                Y       
##  7      2      177     6.35    55.4          74.5          142.  Y                N       
##  8      2       82     0.046   10.4          24.3           36.8 N                N       
##  9      6      193    11.2     62.4          85.4          153.  Y                N       
## 10      4      142     1.77    35.4          62.4           99.8 N                N       
## # … with 252 more rows, and 10 more variables: hair_eyelid <chr>, hair_tail <chr>,
## #   hair_hornbud <chr>, tactile_muzzle <chr>, tactile_eyebrow <chr>, tactile_eyelash <chr>,
## #   eye_op_close <chr>, papillae_tongue <chr>, eyelid <chr>, sex <chr>
…
For the numeric variables, we get the range (min and max), as well as median/mean and 1st and 3rd quantiles of the variable. This is useful to check for extreme values that probably indicate an error. For the text variables, we don’t get any useful information: this is because there is no general way to summarise text variables. We need to convert them into something else…

Creating new variables

When reading Excel files, R will (usually) store numbers, dates and date/time variables into the correct format automatically (as long as these variables are formatted correctly in Excel - see above). But it has no way of correctly formatting our categorical variables, so it leaves these as simple text entries - we need to format them manually within R into ‘factor’ variables that better represent our categorical variables. That means we need to alter the data frame within R. There are several ways to do this, but here we will stick with the tidyverse approach.

The function mutate() allows us to create a new variable based on one or more existing variables. For example, the following code creates a new variable called crl_mm based on crl_cm:

fetuses %>%
    mutate(crl_mm = crl_cm*10)

## # A tibble: 262 x 19
##    parity age_days weight_kg crl_cm head_width_mm head_length_mm hair_coronary_b… hair_ear
##     <dbl>    <dbl>     <dbl>  <dbl>         <dbl>          <dbl> <chr>            <chr>   
##  1      3      274    35.5     86.8         128            239   Y                Y       
##  2      2      196    10.2     61.8          83.8          154   Y                Y       
##  3      1      259    27.2     89.3         121            220.  Y                Y       
##  4      1      249    29.1     83           118            215   Y                Y       
##  5      2      221    16.6     75.4         101.           183   Y                Y       
##  6      3      221    19.0     77.7          97            189   Y                Y       
##  7      2      177     6.35    55.4          74.5          142.  Y                N       
##  8      2       82     0.046   10.4          24.3           36.8 N                N       
##  9      6      193    11.2     62.4          85.4          153.  Y                N       
## 10      4      142     1.77    35.4          62.4           99.8 N                N       
## # … with 252 more rows, and 11 more variables: hair_eyelid <chr>, hair_tail <chr>,
## #   hair_hornbud <chr>, tactile_muzzle <chr>, tactile_eyebrow <chr>, tactile_eyelash <chr>,
## #   eye_op_close <chr>, papillae_tongue <chr>, eyelid <chr>, sex <chr>, crl_mm <dbl>
…
##        ID            parity         age_days     hair_coronary_band hair_coronary_band_fct
##  Min.   :  1.0   Min.   :1.000   Min.   : 51.0   Length:243         N   :183              
##  1st Qu.: 61.5   1st Qu.:2.000   1st Qu.:107.5   Class :character   Y   : 58              
##  Median :122.0   Median :3.000   Median :144.0   Mode  :character   NA  :  1              
##  Mean   :125.6   Mean   :2.774   Mean   :143.3                      NA's:  1              
##  3rd Qu.:188.5   3rd Qu.:4.000   3rd Qu.:176.5                                            
##  Max.   :262.0   Max.   :6.000   Max.   :274.0

We have both the factor level NA (the value that was missing to start with) and NA’s (the value of ‘n’ that became missing because it wasn’t included in the allowed levels). But this subtle distinction is not visible in the data itself:

fetuses

## # A tibble: 243 x 5
##       ID parity age_days hair_coronary_band hair_coronary_band_fct
##    <int>  <dbl>    <dbl> <chr>              <fct>                 
##  1     1      3      274 n                  <NA>                  
##  2     2      2      196 ""                 <NA>                  
##  3     3      1      259 Y                  Y                     
##  4     4      1      249 Y                  Y                     
##  5     5      2      221 Y                  Y                     
##  6     6      3      221 Y                  Y                     
##  7     7      2      177 Y                  Y                     
##  8     8      2       82 N                  N                     
##  9     9      6      193 Y                  Y                     
## 10    10      4      142 N                  N                     
## # … with 233 more rows
…
